[217] START: 36 ~ END: 268 || 그거는 한다고 한 게 아닌데
[217] START: 268 ~ END: 921 || 아는 사람들은 한시간에 발표하더라고요
[217] START: 921 ~ END: 1073 || 근로자가 지금 못해요
[217] START: 1073 ~ END: 1254 || 안하고요[217] START: 1512 ~ END: 1641 || 
그래서[217] START: 1692 ~ END: 1925 || 
그러면
[217] START: 1925 ~ END: 2364 || 한대학교 정책하는 사람이기 때문에[217] START: 2367 ~ END: 2757 || 
대학교 경영하는 사람들이 생각하는 게 아니에요[217] START: 2853 ~ END: 3033 || 
다른 얘기인거야[217] START: 3039 ~ END: 3195 || 
공부하는 것 같고 있느냐
[217] START: 3195 ~ END: 3276 || 안 돼요[217] START: 3444 ~ END: 3819 || 
기술연락에서는[217] START: 4068 ~ END: 4461 || 
이 기술에 대해서는[217] START: 4473 ~ END: 4707 || 
이거는 이제 필요해요[217] START: 4869 ~ END: 5481 || 
기술혁명에서는 지식 지식이 필요하다고[217] START: 5748 ~ END: 6000 || 
우리가 항상 무슨 말을